{
    "swagger": "2.0",
    "info": {
        "description": "vtrack is a software version tracking server.",
        "title": "vtrack REST API",
        "contact": {},
        "license": {
            "name": "GPL-3.0",
            "url": "https://www.gnu.org/licenses/gpl-3.0.txt"
        },
        "version": "0.1.0"
    },
    "host": "localhost:4000",
    "basePath": "/api/v1",
    "paths": {
        "/api/v1/users/{userID}/subscriptions/{softwareID}": {
            "put": {
                "description": "Add a subscription",
                "consumes": [
                    "application/json"
                ],
                "tags": [
                    "Subscriptions"
                ],
                "summary": "AddSubscription",
                "parameters": [
                    {
                        "type": "integer",
                        "description": "User ID",
                        "name": "userID",
                        "in": "path",
                        "required": true
                    },
                    {
                        "type": "integer",
                        "description": "Software ID",
                        "name": "softwareID",
                        "in": "path",
                        "required": true
                    },
                    {
                        "description": "Subscription patch body",
                        "name": "subscription",
                        "in": "body",
                        "required": true,
                        "schema": {
                            "type": "object",
                            "$ref": "#/definitions/model.SubscriptionPatch"
                        }
                    }
                ],
                "responses": {
                    "201": {},
                    "400": {
                        "description": "Bad Request",
                        "schema": {
                            "type": "object",
                            "$ref": "#/definitions/model.AppError"
                        }
                    },
                    "401": {
                        "description": "Unauthorized",
                        "schema": {
                            "type": "object",
                            "$ref": "#/definitions/model.AppError"
                        }
                    },
                    "403": {
                        "description": "Forbidden",
                        "schema": {
                            "type": "object",
                            "$ref": "#/definitions/model.AppError"
                        }
                    },
                    "500": {}
                }
            },
            "delete": {
                "description": "Delete a Subscription\u003cbr\u003e[requires admin or ownership permissions]",
                "tags": [
                    "Subscriptions"
                ],
                "summary": "DeleteSubscription",
                "parameters": [
                    {
                        "type": "integer",
                        "description": "User ID",
                        "name": "userID",
                        "in": "path",
                        "required": true
                    },
                    {
                        "type": "integer",
                        "description": "Software ID",
                        "name": "softwareID",
                        "in": "path",
                        "required": true
                    }
                ],
                "responses": {
                    "204": {},
                    "400": {
                        "description": "Bad Request",
                        "schema": {
                            "type": "object",
                            "$ref": "#/definitions/model.AppError"
                        }
                    },
                    "401": {
                        "description": "Unauthorized",
                        "schema": {
                            "type": "object",
                            "$ref": "#/definitions/model.AppError"
                        }
                    },
                    "403": {
                        "description": "Forbidden",
                        "schema": {
                            "type": "object",
                            "$ref": "#/definitions/model.AppError"
                        }
                    },
                    "500": {}
                }
            },
            "patch": {
                "description": "Patch a Subscription\u003cbr\u003e[requires admin or ownership permissions]",
                "consumes": [
                    "application/json"
                ],
                "produces": [
                    "application/json"
                ],
                "tags": [
                    "Subscriptions"
                ],
                "summary": "PatchSubscription",
                "parameters": [
                    {
                        "type": "integer",
                        "description": "User ID",
                        "name": "userID",
                        "in": "path",
                        "required": true
                    },
                    {
                        "type": "integer",
                        "description": "Software ID",
                        "name": "softwareID",
                        "in": "path",
                        "required": true
                    },
                    {
                        "description": "Subscription patch body",
                        "name": "subscription",
                        "in": "body",
                        "required": true,
                        "schema": {
                            "type": "object",
                            "$ref": "#/definitions/model.SubscriptionPatch"
                        }
                    }
                ],
                "responses": {
                    "200": {
                        "description": "OK",
                        "schema": {
                            "type": "object",
                            "$ref": "#/definitions/model.Subscription"
                        }
                    },
                    "400": {
                        "description": "Bad Request",
                        "schema": {
                            "type": "object",
                            "$ref": "#/definitions/model.AppError"
                        }
                    },
                    "401": {
                        "description": "Unauthorized",
                        "schema": {
                            "type": "object",
                            "$ref": "#/definitions/model.AppError"
                        }
                    },
                    "403": {
                        "description": "Forbidden",
                        "schema": {
                            "type": "object",
                            "$ref": "#/definitions/model.AppError"
                        }
                    },
                    "500": {}
                }
            }
        },
        "/api/v1/users/{userID}/subscriptions/{softwareID}/tags/{tagID}": {
            "put": {
                "description": "Add a subscription tag",
                "consumes": [
                    "application/json"
                ],
                "tags": [
                    "Subscriptions"
                ],
                "summary": "AddSubscriptionTag",
                "parameters": [
                    {
                        "type": "integer",
                        "description": "User ID",
                        "name": "userID",
                        "in": "path",
                        "required": true
                    },
                    {
                        "type": "integer",
                        "description": "Software ID",
                        "name": "softwareID",
                        "in": "path",
                        "required": true
                    },
                    {
                        "type": "integer",
                        "description": "Software ID",
                        "name": "tagID",
                        "in": "path",
                        "required": true
                    }
                ],
                "responses": {
                    "201": {},
                    "400": {
                        "description": "Bad Request",
                        "schema": {
                            "type": "object",
                            "$ref": "#/definitions/model.AppError"
                        }
                    },
                    "401": {
                        "description": "Unauthorized",
                        "schema": {
                            "type": "object",
                            "$ref": "#/definitions/model.AppError"
                        }
                    },
                    "403": {
                        "description": "Forbidden",
                        "schema": {
                            "type": "object",
                            "$ref": "#/definitions/model.AppError"
                        }
                    },
                    "500": {}
                }
            },
            "delete": {
                "description": "Delete a subscription tag",
                "consumes": [
                    "application/json"
                ],
                "tags": [
                    "Subscriptions"
                ],
                "summary": "DeleteSubscriptionTag",
                "parameters": [
                    {
                        "type": "integer",
                        "description": "User ID",
                        "name": "userID",
                        "in": "path",
                        "required": true
                    },
                    {
                        "type": "integer",
                        "description": "Software ID",
                        "name": "softwareID",
                        "in": "path",
                        "required": true
                    },
                    {
                        "type": "integer",
                        "description": "Software ID",
                        "name": "tagID",
                        "in": "path",
                        "required": true
                    }
                ],
                "responses": {
                    "204": {},
                    "400": {
                        "description": "Bad Request",
                        "schema": {
                            "type": "object",
                            "$ref": "#/definitions/model.AppError"
                        }
                    },
                    "401": {
                        "description": "Unauthorized",
                        "schema": {
                            "type": "object",
                            "$ref": "#/definitions/model.AppError"
                        }
                    },
                    "403": {
                        "description": "Forbidden",
                        "schema": {
                            "type": "object",
                            "$ref": "#/definitions/model.AppError"
                        }
                    },
                    "500": {}
                }
            }
        },
        "/auth": {
            "post": {
                "description": "Auth with user auth body",
                "consumes": [
                    "application/json"
                ],
                "produces": [
                    "application/json"
                ],
                "tags": [
                    "Auth"
                ],
                "summary": "Auth",
                "parameters": [
                    {
                        "description": "Auth body",
                        "name": "auth",
                        "in": "body",
                        "required": true,
                        "schema": {
                            "type": "object",
                            "$ref": "#/definitions/model.Auth"
                        }
                    }
                ],
                "responses": {
                    "200": {
                        "description": "OK",
                        "schema": {
                            "type": "object",
                            "$ref": "#/definitions/model.Token"
                        }
                    },
                    "401": {
                        "description": "Unauthorized",
                        "schema": {
                            "type": "object",
                            "$ref": "#/definitions/model.AppError"
                        }
                    },
                    "500": {}
                }
            }
        },
        "/categories": {
            "get": {
                "description": "Get all categories",
                "produces": [
                    "application/json"
                ],
                "tags": [
                    "Categories"
                ],
                "summary": "GetCategories",
                "responses": {
                    "200": {
                        "description": "OK",
                        "schema": {
                            "type": "array",
                            "items": {
                                "$ref": "#/definitions/model.Category"
                            }
                        }
                    },
                    "401": {
                        "description": "Unauthorized",
                        "schema": {
                            "type": "object",
                            "$ref": "#/definitions/model.AppError"
                        }
                    },
                    "500": {}
                }
            },
            "post": {
                "description": "Add a category\u003cbr\u003eThe new ressource Location is returned in the header\u003cbr\u003e[requires admin]",
                "consumes": [
                    "application/json"
                ],
                "tags": [
                    "Categories"
                ],
                "summary": "AddCategory",
                "parameters": [
                    {
                        "description": "Category body",
                        "name": "category",
                        "in": "body",
                        "required": true,
                        "schema": {
                            "type": "object",
                            "$ref": "#/definitions/model.Category"
                        }
                    }
                ],
                "responses": {
                    "201": {},
                    "400": {
                        "description": "Bad Request",
                        "schema": {
                            "type": "object",
                            "$ref": "#/definitions/model.AppError"
                        }
                    },
                    "401": {
                        "description": "Unauthorized",
                        "schema": {
                            "type": "object",
                            "$ref": "#/definitions/model.AppError"
                        }
                    },
                    "403": {
                        "description": "Forbidden",
                        "schema": {
                            "type": "object",
                            "$ref": "#/definitions/model.AppError"
                        }
                    },
                    "500": {}
                }
            }
        },
        "/categories/{categoryName}": {
            "delete": {
                "description": "Delete a category\u003cbr\u003e[requires admin]",
                "tags": [
                    "Categories"
                ],
                "summary": "DeleteCategory",
                "parameters": [
                    {
                        "type": "string",
                        "description": "Category Name",
                        "name": "categoryName",
                        "in": "path",
                        "required": true
                    }
                ],
                "responses": {
                    "204": {},
                    "400": {
                        "description": "Bad Request",
                        "schema": {
                            "type": "object",
                            "$ref": "#/definitions/model.AppError"
                        }
                    },
                    "401": {
                        "description": "Unauthorized",
                        "schema": {
                            "type": "object",
                            "$ref": "#/definitions/model.AppError"
                        }
                    },
                    "403": {
                        "description": "Forbidden",
                        "schema": {
                            "type": "object",
                            "$ref": "#/definitions/model.AppError"
                        }
                    },
                    "500": {}
                }
            }
        },
        "/info": {
            "get": {
                "description": "Get application informations",
                "produces": [
                    "application/json"
                ],
                "tags": [
                    "System"
                ],
                "summary": "GetInfo",
                "responses": {
                    "200": {
                        "description": "OK",
                        "schema": {
                            "type": "object",
                            "$ref": "#/definitions/model.Info"
                        }
                    },
                    "500": {}
                }
            }
        },
        "/register": {
            "post": {
                "description": "Register with user registration body",
                "consumes": [
                    "application/json"
                ],
                "tags": [
                    "Auth"
                ],
                "summary": "Register",
                "parameters": [
                    {
                        "description": "Registration body",
                        "name": "registration",
                        "in": "body",
                        "required": true,
                        "schema": {
                            "type": "object",
                            "$ref": "#/definitions/model.Registration"
                        }
                    }
                ],
                "responses": {
                    "201": {},
                    "400": {
                        "description": "Bad Request",
                        "schema": {
                            "type": "object",
                            "$ref": "#/definitions/model.AppError"
                        }
                    },
                    "500": {}
                }
            }
        },
        "/search": {
            "get": {
                "description": "Search for softwares",
                "produces": [
                    "application/json"
                ],
                "tags": [
                    "Softwares"
                ],
                "summary": "Search",
                "parameters": [
                    {
                        "type": "string",
                        "description": "Search query",
                        "name": "q",
                        "in": "query",
                        "required": true
                    }
                ],
                "responses": {
                    "200": {
                        "description": "OK",
                        "schema": {
                            "type": "array",
                            "items": {
                                "$ref": "#/definitions/model.Software"
                            }
                        }
                    },
                    "400": {
                        "description": "Bad Request",
                        "schema": {
                            "type": "object",
                            "$ref": "#/definitions/model.AppError"
                        }
                    },
                    "401": {
                        "description": "Unauthorized",
                        "schema": {
                            "type": "object",
                            "$ref": "#/definitions/model.AppError"
                        }
                    },
                    "500": {}
                }
            }
        },
        "/softwares": {
            "get": {
                "description": "Get all softwares",
                "produces": [
                    "application/json"
                ],
                "tags": [
                    "Softwares"
                ],
                "summary": "GetSoftwares",
                "responses": {
                    "200": {
                        "description": "OK",
                        "schema": {
                            "type": "array",
                            "items": {
                                "$ref": "#/definitions/model.Software"
                            }
                        }
                    },
                    "401": {
                        "description": "Unauthorized",
                        "schema": {
                            "type": "object",
                            "$ref": "#/definitions/model.AppError"
                        }
                    },
                    "500": {}
                }
            },
            "post": {
                "description": "Add a software\u003cbr\u003eThe new ressource Location is returned in the header",
                "consumes": [
                    "application/json"
                ],
                "tags": [
                    "Softwares"
                ],
                "summary": "AddSoftware",
                "parameters": [
                    {
                        "description": "Software patch body",
                        "name": "software",
                        "in": "body",
                        "required": true,
                        "schema": {
                            "type": "object",
                            "$ref": "#/definitions/model.SoftwarePatch"
                        }
                    }
                ],
                "responses": {
                    "201": {},
                    "400": {
                        "description": "Bad Request",
                        "schema": {
                            "type": "object",
                            "$ref": "#/definitions/model.AppError"
                        }
                    },
                    "401": {
                        "description": "Unauthorized",
                        "schema": {
                            "type": "object",
                            "$ref": "#/definitions/model.AppError"
                        }
                    },
                    "500": {}
                }
            }
        },
        "/softwares/{softwareID}": {
            "get": {
                "description": "Get a software",
                "produces": [
                    "application/json"
                ],
                "tags": [
                    "Softwares"
                ],
                "summary": "GetSoftware",
                "parameters": [
                    {
                        "type": "integer",
                        "description": "Software ID",
                        "name": "softwareID",
                        "in": "path",
                        "required": true
                    }
                ],
                "responses": {
                    "200": {
                        "description": "OK",
                        "schema": {
                            "type": "object",
                            "$ref": "#/definitions/model.Software"
                        }
                    },
                    "400": {
                        "description": "Bad Request",
                        "schema": {
                            "type": "object",
                            "$ref": "#/definitions/model.AppError"
                        }
                    },
                    "401": {
                        "description": "Unauthorized",
                        "schema": {
                            "type": "object",
                            "$ref": "#/definitions/model.AppError"
                        }
                    },
                    "403": {
                        "description": "Forbidden",
                        "schema": {
                            "type": "object",
                            "$ref": "#/definitions/model.AppError"
                        }
                    },
                    "500": {}
                }
            },
            "delete": {
                "description": "Delete a Software\u003cbr\u003e[requires admin or ownership permissions]",
                "tags": [
                    "Softwares"
                ],
                "summary": "DeleteSoftware",
                "parameters": [
                    {
                        "type": "integer",
                        "description": "Software ID",
                        "name": "softwareID",
                        "in": "path",
                        "required": true
                    }
                ],
                "responses": {
                    "204": {},
                    "400": {
                        "description": "Bad Request",
                        "schema": {
                            "type": "object",
                            "$ref": "#/definitions/model.AppError"
                        }
                    },
                    "401": {
                        "description": "Unauthorized",
                        "schema": {
                            "type": "object",
                            "$ref": "#/definitions/model.AppError"
                        }
                    },
                    "403": {
                        "description": "Forbidden",
                        "schema": {
                            "type": "object",
                            "$ref": "#/definitions/model.AppError"
                        }
                    },
                    "500": {}
                }
            },
            "patch": {
                "description": "Patch a Software\u003cbr\u003e[requires admin or ownership permissions]",
                "consumes": [
                    "application/json"
                ],
                "produces": [
                    "application/json"
                ],
                "tags": [
                    "Softwares"
                ],
                "summary": "PatchSoftware",
                "parameters": [
                    {
                        "type": "integer",
                        "description": "Software ID",
                        "name": "softwareID",
                        "in": "path",
                        "required": true
                    },
                    {
                        "description": "Software patch body",
                        "name": "software",
                        "in": "body",
                        "required": true,
                        "schema": {
                            "type": "object",
                            "$ref": "#/definitions/model.SoftwarePatch"
                        }
                    }
                ],
                "responses": {
                    "200": {
                        "description": "OK",
                        "schema": {
                            "type": "object",
                            "$ref": "#/definitions/model.Software"
                        }
                    },
                    "400": {
                        "description": "Bad Request",
                        "schema": {
                            "type": "object",
                            "$ref": "#/definitions/model.AppError"
                        }
                    },
                    "401": {
                        "description": "Unauthorized",
                        "schema": {
                            "type": "object",
                            "$ref": "#/definitions/model.AppError"
                        }
                    },
                    "403": {
                        "description": "Forbidden",
                        "schema": {
                            "type": "object",
                            "$ref": "#/definitions/model.AppError"
                        }
                    },
                    "500": {}
                }
            }
        },
        "/users": {
            "get": {
                "description": "Get all users\u003cbr\u003e[requires admin]",
                "produces": [
                    "application/json"
                ],
                "tags": [
                    "Users"
                ],
                "summary": "GetUsers",
                "responses": {
                    "200": {
                        "description": "OK",
                        "schema": {
                            "type": "array",
                            "items": {
                                "$ref": "#/definitions/model.User"
                            }
                        }
                    },
                    "401": {
                        "description": "Unauthorized",
                        "schema": {
                            "type": "object",
                            "$ref": "#/definitions/model.AppError"
                        }
                    },
                    "403": {
                        "description": "Forbidden",
                        "schema": {
                            "type": "object",
                            "$ref": "#/definitions/model.AppError"
                        }
                    },
                    "500": {}
                }
            },
            "post": {
                "description": "Add a user\u003cbr\u003eThe new ressource Location is returned in the header\u003cbr\u003e[requires admin]",
                "consumes": [
                    "application/json"
                ],
                "tags": [
                    "Users"
                ],
                "summary": "AddUser",
                "parameters": [
                    {
                        "description": "User patch body",
                        "name": "user",
                        "in": "body",
                        "required": true,
                        "schema": {
                            "type": "object",
                            "$ref": "#/definitions/model.UserPatch"
                        }
                    }
                ],
                "responses": {
                    "201": {},
                    "400": {
                        "description": "Bad Request",
                        "schema": {
                            "type": "object",
                            "$ref": "#/definitions/model.AppError"
                        }
                    },
                    "401": {
                        "description": "Unauthorized",
                        "schema": {
                            "type": "object",
                            "$ref": "#/definitions/model.AppError"
                        }
                    },
                    "403": {
                        "description": "Forbidden",
                        "schema": {
                            "type": "object",
                            "$ref": "#/definitions/model.AppError"
                        }
                    },
                    "500": {}
                }
            }
        },
        "/users/{userID}": {
            "get": {
                "description": "Get a user\u003cbr\u003e[requires admin or ownership permissions]",
                "produces": [
                    "application/json"
                ],
                "tags": [
                    "Users"
                ],
                "summary": "GetUser",
                "parameters": [
                    {
                        "type": "integer",
                        "description": "User ID",
                        "name": "userID",
                        "in": "path",
                        "required": true
                    }
                ],
                "responses": {
                    "200": {
                        "description": "OK",
                        "schema": {
                            "type": "object",
                            "$ref": "#/definitions/model.User"
                        }
                    },
                    "400": {
                        "description": "Bad Request",
                        "schema": {
                            "type": "object",
                            "$ref": "#/definitions/model.AppError"
                        }
                    },
                    "401": {
                        "description": "Unauthorized",
                        "schema": {
                            "type": "object",
                            "$ref": "#/definitions/model.AppError"
                        }
                    },
                    "403": {
                        "description": "Forbidden",
                        "schema": {
                            "type": "object",
                            "$ref": "#/definitions/model.AppError"
                        }
                    },
                    "500": {}
                }
            },
            "delete": {
                "description": "Delete a user\u003cbr\u003e[requires admin or ownership permissions]",
                "tags": [
                    "Users"
                ],
                "summary": "DeleteUser",
                "parameters": [
                    {
                        "type": "integer",
                        "description": "User ID",
                        "name": "userID",
                        "in": "path",
                        "required": true
                    }
                ],
                "responses": {
                    "204": {},
                    "400": {
                        "description": "Bad Request",
                        "schema": {
                            "type": "object",
                            "$ref": "#/definitions/model.AppError"
                        }
                    },
                    "401": {
                        "description": "Unauthorized",
                        "schema": {
                            "type": "object",
                            "$ref": "#/definitions/model.AppError"
                        }
                    },
                    "403": {
                        "description": "Forbidden",
                        "schema": {
                            "type": "object",
                            "$ref": "#/definitions/model.AppError"
                        }
                    },
                    "500": {}
                }
            },
            "patch": {
                "description": "Patch a user\u003cbr\u003e[requires admin or ownership permissions]",
                "consumes": [
                    "application/json"
                ],
                "produces": [
                    "application/json"
                ],
                "tags": [
                    "Users"
                ],
                "summary": "PatchUser",
                "parameters": [
                    {
                        "type": "integer",
                        "description": "User ID",
                        "name": "userID",
                        "in": "path",
                        "required": true
                    },
                    {
                        "description": "User patch body",
                        "name": "user",
                        "in": "body",
                        "required": true,
                        "schema": {
                            "type": "object",
                            "$ref": "#/definitions/model.UserPatch"
                        }
                    }
                ],
                "responses": {
                    "200": {
                        "description": "OK",
                        "schema": {
                            "type": "object",
                            "$ref": "#/definitions/model.User"
                        }
                    },
                    "400": {
                        "description": "Bad Request",
                        "schema": {
                            "type": "object",
                            "$ref": "#/definitions/model.AppError"
                        }
                    },
                    "401": {
                        "description": "Unauthorized",
                        "schema": {
                            "type": "object",
                            "$ref": "#/definitions/model.AppError"
                        }
                    },
                    "403": {
                        "description": "Forbidden",
                        "schema": {
                            "type": "object",
                            "$ref": "#/definitions/model.AppError"
                        }
                    },
                    "500": {}
                }
            }
        },
        "/users/{userID}/subscriptions": {
            "get": {
                "description": "Get all user subscriptions\u003cbr\u003e[requires admin or ownership permissions]",
                "produces": [
                    "application/json"
                ],
                "tags": [
                    "Subscriptions"
                ],
                "summary": "GetSubscriptions",
                "parameters": [
                    {
                        "type": "integer",
                        "description": "User ID",
                        "name": "userID",
                        "in": "path",
                        "required": true
                    }
                ],
                "responses": {
                    "200": {
                        "description": "OK",
                        "schema": {
                            "type": "array",
                            "items": {
                                "$ref": "#/definitions/model.Subscription"
                            }
                        }
                    },
                    "401": {
                        "description": "Unauthorized",
                        "schema": {
                            "type": "object",
                            "$ref": "#/definitions/model.AppError"
                        }
                    },
                    "403": {
                        "description": "Forbidden",
                        "schema": {
                            "type": "object",
                            "$ref": "#/definitions/model.AppError"
                        }
                    },
                    "500": {}
                }
            }
        },
        "/users/{userID}/tags": {
            "get": {
                "description": "Get all user tags\u003cbr\u003e[requires admin or ownership permissions]",
                "produces": [
                    "application/json"
                ],
                "tags": [
                    "Tags"
                ],
                "summary": "GetUserTags",
                "parameters": [
                    {
                        "type": "integer",
                        "description": "User ID",
                        "name": "userID",
                        "in": "path",
                        "required": true
                    }
                ],
                "responses": {
                    "200": {
                        "description": "OK",
                        "schema": {
                            "type": "array",
                            "items": {
                                "$ref": "#/definitions/model.Tag"
                            }
                        }
                    },
                    "400": {
                        "description": "Bad Request",
                        "schema": {
                            "type": "object",
                            "$ref": "#/definitions/model.AppError"
                        }
                    },
                    "401": {
                        "description": "Unauthorized",
                        "schema": {
                            "type": "object",
                            "$ref": "#/definitions/model.AppError"
                        }
                    },
                    "403": {
                        "description": "Forbidden",
                        "schema": {
                            "type": "object",
                            "$ref": "#/definitions/model.AppError"
                        }
                    },
                    "500": {}
                }
            },
            "post": {
                "description": "Add a user tag\u003cbr\u003eThe new ressource Location is returned in the header",
                "consumes": [
                    "application/json"
                ],
                "tags": [
                    "Tags"
                ],
                "summary": "AddUserTag",
                "parameters": [
                    {
                        "type": "integer",
                        "description": "User ID",
                        "name": "userID",
                        "in": "path",
                        "required": true
                    },
                    {
                        "description": "Tag patch body",
                        "name": "tag",
                        "in": "body",
                        "required": true,
                        "schema": {
                            "type": "object",
                            "$ref": "#/definitions/model.TagPatch"
                        }
                    }
                ],
                "responses": {
                    "201": {},
                    "400": {
                        "description": "Bad Request",
                        "schema": {
                            "type": "object",
                            "$ref": "#/definitions/model.AppError"
                        }
                    },
                    "401": {
                        "description": "Unauthorized",
                        "schema": {
                            "type": "object",
                            "$ref": "#/definitions/model.AppError"
                        }
                    },
                    "403": {
                        "description": "Forbidden",
                        "schema": {
                            "type": "object",
                            "$ref": "#/definitions/model.AppError"
                        }
                    },
                    "500": {}
                }
            }
        },
        "/users/{userID}/tags/{tagID}": {
            "delete": {
                "description": "Delete a tag\u003cbr\u003e[requires admin or ownership permissions]",
                "tags": [
                    "Tags"
                ],
                "summary": "DeleteUserTag",
                "parameters": [
                    {
                        "type": "integer",
                        "description": "User ID",
                        "name": "userID",
                        "in": "path",
                        "required": true
                    },
                    {
                        "type": "integer",
                        "description": "Tag ID",
                        "name": "tagID",
                        "in": "path",
                        "required": true
                    }
                ],
                "responses": {
                    "204": {},
                    "400": {
                        "description": "Bad Request",
                        "schema": {
                            "type": "object",
                            "$ref": "#/definitions/model.AppError"
                        }
                    },
                    "401": {
                        "description": "Unauthorized",
                        "schema": {
                            "type": "object",
                            "$ref": "#/definitions/model.AppError"
                        }
                    },
                    "403": {
                        "description": "Forbidden",
                        "schema": {
                            "type": "object",
                            "$ref": "#/definitions/model.AppError"
                        }
                    },
                    "500": {}
                }
            },
            "patch": {
                "description": "Patch a tag\u003cbr\u003e[requires admin or ownership permissions]",
                "consumes": [
                    "application/json"
                ],
                "produces": [
                    "application/json"
                ],
                "tags": [
                    "Tags"
                ],
                "summary": "PatchUserTag",
                "parameters": [
                    {
                        "type": "integer",
                        "description": "User ID",
                        "name": "userID",
                        "in": "path",
                        "required": true
                    },
                    {
                        "type": "integer",
                        "description": "Tag ID",
                        "name": "tagID",
                        "in": "path",
                        "required": true
                    },
                    {
                        "description": "Tag patch body",
                        "name": "tag",
                        "in": "body",
                        "required": true,
                        "schema": {
                            "type": "object",
                            "$ref": "#/definitions/model.TagPatch"
                        }
                    }
                ],
                "responses": {
                    "200": {
                        "description": "OK",
                        "schema": {
                            "type": "object",
                            "$ref": "#/definitions/model.Tag"
                        }
                    },
                    "400": {
                        "description": "Bad Request",
                        "schema": {
                            "type": "object",
                            "$ref": "#/definitions/model.AppError"
                        }
                    },
                    "401": {
                        "description": "Unauthorized",
                        "schema": {
                            "type": "object",
                            "$ref": "#/definitions/model.AppError"
                        }
                    },
                    "403": {
                        "description": "Forbidden",
                        "schema": {
                            "type": "object",
                            "$ref": "#/definitions/model.AppError"
                        }
                    },
                    "500": {}
                }
            }
        }
    },
    "definitions": {
        "model.AppError": {
            "type": "object",
            "properties": {
                "message": {
                    "type": "string"
                },
                "status_code": {
                    "type": "integer"
                }
            }
        },
        "model.Auth": {
            "type": "object",
            "required": [
                "password",
                "username"
            ],
            "properties": {
                "password": {
                    "type": "string"
                },
                "username": {
                    "type": "string"
                }
            }
        },
        "model.Category": {
            "type": "object",
            "required": [
                "name"
            ],
            "properties": {
                "name": {
                    "type": "string"
                }
            }
        },
        "model.Info": {
            "type": "object",
            "properties": {
                "application_build_time": {
                    "type": "string"
                },
                "application_commit": {
                    "type": "string"
                },
                "application_name": {
                    "type": "string"
                },
                "application_version": {
                    "type": "string"
                }
            }
        },
        "model.Registration": {
            "type": "object",
            "required": [
                "email",
                "email_confirmation",
                "password",
                "password_confirmation",
                "username"
            ],
            "properties": {
                "email": {
                    "type": "string"
                },
                "email_confirmation": {
                    "type": "string"
                },
                "password": {
                    "type": "string"
                },
                "password_confirmation": {
                    "type": "string"
                },
                "username": {
                    "type": "string"
                }
            }
        },
        "model.Software": {
            "type": "object",
            "properties": {
                "created_at": {
                    "type": "string"
                },
                "created_by": {
                    "type": "integer"
                },
                "description": {
                    "type": "string"
                },
                "id": {
                    "type": "integer"
                },
                "name": {
                    "type": "string"
                },
                "repository": {
                    "type": "string"
                },
                "repository_type": {
                    "type": "string"
                },
                "updated_at": {
                    "type": "string"
                },
                "version": {
                    "type": "string"
                },
                "version_updated_at": {
                    "type": "string"
                },
                "website": {
                    "type": "string"
                }
            }
        },
        "model.SoftwarePatch": {
            "type": "object",
            "properties": {
                "description": {
                    "type": "string"
                },
                "name": {
                    "type": "string"
                },
                "repository": {
                    "type": "string"
                },
                "repository_type": {
                    "type": "string"
                },
                "website": {
                    "type": "string"
                }
            }
        },
        "model.Subscription": {
            "type": "object",
            "properties": {
                "created_at": {
                    "type": "string"
                },
                "created_by": {
                    "type": "integer"
                },
                "description": {
                    "type": "string"
                },
                "id": {
                    "type": "integer"
                },
                "name": {
                    "type": "string"
                },
                "repository": {
                    "type": "string"
                },
                "repository_type": {
                    "type": "string"
                },
                "severity": {
                    "type": "string"
                },
                "tags": {
                    "type": "object",
                    "$ref": "#/definitions/model.Tags"
                },
                "updated_at": {
                    "type": "string"
                },
                "version": {
                    "type": "string"
                },
                "version_updated_at": {
                    "type": "string"
                },
                "website": {
                    "type": "string"
                }
            }
        },
        "model.SubscriptionPatch": {
            "type": "object",
            "properties": {
                "severity": {
                    "type": "string"
                }
            }
        },
        "model.Tag": {
            "type": "object",
            "properties": {
                "color": {
                    "type": "string"
                },
                "created_at": {
                    "type": "string"
                },
                "id": {
                    "type": "integer"
                },
                "name": {
                    "type": "string"
                },
                "text_light": {
                    "type": "boolean"
                },
                "updated_at": {
                    "type": "string"
                },
                "user_id": {
                    "type": "integer"
                }
            }
        },
        "model.TagPatch": {
            "type": "object",
            "properties": {
                "color": {
                    "type": "string"
                },
                "name": {
                    "type": "string"
                },
                "text_light": {
                    "type": "boolean"
                }
            }
        },
        "model.Tags": {
            "type": "array",
            "items": {
                "type": "object",
                "properties": {
                    "color": {
                        "type": "string"
                    },
                    "created_at": {
                        "type": "string"
                    },
                    "id": {
                        "type": "integer"
                    },
                    "name": {
                        "type": "string"
                    },
                    "text_light": {
                        "type": "boolean"
                    },
                    "updated_at": {
                        "type": "string"
                    },
                    "user_id": {
                        "type": "integer"
                    }
                }
            }
        },
        "model.Token": {
            "type": "object",
            "properties": {
                "token": {
                    "type": "string"
                }
            }
        },
        "model.User": {
            "type": "object",
            "properties": {
                "created_at": {
                    "type": "string"
                },
                "email": {
                    "type": "string"
                },
                "email_verified": {
                    "type": "boolean"
                },
                "id": {
                    "type": "integer"
                },
                "roles": {
                    "type": "string"
                },
                "updated_at": {
                    "type": "string"
                },
                "username": {
                    "type": "string"
                }
            }
        },
        "model.UserPatch": {
            "type": "object",
            "properties": {
                "email": {
                    "type": "string"
                },
                "name": {
                    "type": "string"
                },
                "password": {
                    "type": "string"
                }
            }
        }
    },
    "securityDefinitions": {
        "JWTAuthorizationBearer": {
            "type": "apiKey",
            "name": "Authorization",
            "in": "header"
        }
    }
}